{"foodSearchCriteria":{"generalSearchInput":"cherry","pageNumber":1,"requireAllWords":false},"totalHits":5346,"currentPage":1,"totalPages":107,"foods":[{"fdcId":341477,"description":"Cherries, dried","additionalDescriptions":"sweetened ","dataType":"Survey (FNDDS)","foodCode":"62106000","publishedDate":"2019-04-01","allHighlightFields":"","score":308.8815},{"fdcId":341555,"description":"Cherries, frozen","dataType":"Survey (FNDDS)","foodCode":"63115200","publishedDate":"2019-04-01","allHighlightFields":"","score":308.8815},{"fdcId":341543,"description":"Cherries, maraschino","dataType":"Survey (FNDDS)","foodCode":"63111010","publishedDate":"2019-04-01","allHighlightFields":"","score":308.8815},{"fdcId":340039,"description":"Cobbler, cherry","dataType":"Survey (FNDDS)","foodCode":"53410500","publishedDate":"2019-04-01","allHighlightFields":"","score":308.8815},{"fdcId":340050,"description":"Crisp, cherry","dataType":"Survey (FNDDS)","foodCode":"53415400","publishedDate":"2019-04-01","allHighlightFields":"","score":308.8815},{"fdcId":340071,"description":"Strudel, cherry","dataType":"Survey (FNDDS)","foodCode":"53440500","publishedDate":"2019-04-01","allHighlightFields":"","score":308.8815},{"fdcId":171719,"description":"Cherries, sweet, raw","scientificName":"Prunus avium","dataType":"SR Legacy","ndbNumber":"9070","publishedDate":"2019-04-01","allHighlightFields":"","score":274.96097},{"fdcId":167807,"description":"Cherry juice, tart","dataType":"SR Legacy","ndbNumber":"9546","publishedDate":"2019-04-01","allHighlightFields":"","score":274.96097},{"fdcId":341545,"description":"Cherry pie filling","dataType":"Survey (FNDDS)","foodCode":"63113030","publishedDate":"2019-04-01","allHighlightFields":"","score":274.96097},{"fdcId":340080,"description":"Turnover or dumpling, cherry","dataType":"Survey (FNDDS)","foodCode":"53450500","publishedDate":"2019-04-01","allHighlightFields":"","score":274.96097},{"fdcId":170978,"description":"Babyfood, cherry cobbler, junior","dataType":"SR Legacy","ndbNumber":"3222","publishedDate":"2019-04-01","allHighlightFields":"","score":247.773},{"fdcId":167729,"description":"Babyfood, juice, apple - cherry","dataType":"SR Legacy","ndbNumber":"43535","publishedDate":"2019-04-01","allHighlightFields":"","score":247.773},{"fdcId":167563,"description":"Candies, TWIZZLERS CHERRY BITES","dataType":"SR Legacy","ndbNumber":"19067","publishedDate":"2019-04-01","allHighlightFields":"","score":247.773},{"fdcId":341544,"description":"Cherries, sour, red, raw","dataType":"Survey (FNDDS)","foodCode":"63113010","publishedDate":"2019-04-01","allHighlightFields":"","score":247.773},{"fdcId":173954,"description":"Cherries, sour, red, raw","scientificName":"Prunus cerasus","dataType":"SR Legacy","ndbNumber":"9063","publishedDate":"2019-04-01","allHighlightFields":"","score":247.773},{"fdcId":167766,"description":"Maraschino cherries, canned, drained","dataType":"SR Legacy","ndbNumber":"9328","publishedDate":"2019-04-01","allHighlightFields":"","score":247.773},{"fdcId":168824,"description":"Pie fillings, canned, cherry","dataType":"SR Legacy","ndbNumber":"19314","publishedDate":"2019-04-01","allHighlightFields":"","score":247.773},{"fdcId":172780,"description":"Pie, cherry, commercially prepared","dataType":"SR Legacy","ndbNumber":"18308","publishedDate":"2019-04-01","allHighlightFields":"","score":247.773},{"fdcId":339960,"description":"Pie, cherry, fried pie","dataType":"Survey (FNDDS)","foodCode":"53305080","publishedDate":"2019-04-01","allHighlightFields":"","score":247.773},{"fdcId":339958,"description":"Pie, cherry, one crust","dataType":"Survey (FNDDS)","foodCode":"53305010","publishedDate":"2019-04-01","allHighlightFields":"","score":247.773},{"fdcId":339957,"description":"Pie, cherry, two crust","dataType":"Survey (FNDDS)","foodCode":"53305000","publishedDate":"2019-04-01","allHighlightFields":"","score":247.773},{"fdcId":173240,"description":"Pie, fried pies, cherry","dataType":"SR Legacy","ndbNumber":"18444","publishedDate":"2019-04-01","allHighlightFields":"","score":247.773},{"fdcId":169129,"description":"Pitanga, (surinam-cherry), raw","scientificName":"Eugenia uniflora","dataType":"SR Legacy","ndbNumber":"9276","publishedDate":"2019-04-01","allHighlightFields":"","score":247.773},{"fdcId":341547,"description":"Cherries, sour, red, cooked, unsweetened","additionalDescriptions":"cherries, cooked, NFS","dataType":"Survey (FNDDS)","foodCode":"63113110","publishedDate":"2019-04-01","allHighlightFields":"<b>Includes</b>: <em>cherries</em>, cooked, NFS","score":244.6185},{"fdcId":339959,"description":"Pie, cherry, individual size or tart","additionalDescriptions":"McDonald's Baked Cherry Pie","dataType":"Survey (FNDDS)","foodCode":"53305070","publishedDate":"2019-04-01","allHighlightFields":"<b>Includes</b>: McDonald's Baked <em>Cherry</em> Pie","score":242.93506},{"fdcId":341774,"description":"Applesauce with cherries, baby food, junior","additionalDescriptions":"Beech-Nut Stage 3 Apples and Cherries","dataType":"Survey (FNDDS)","foodCode":"67104080","publishedDate":"2019-04-01","allHighlightFields":"<b>Includes</b>: Beech-Nut Stage 3 Apples and <em>Cherries</em>","score":240.20045},{"fdcId":341773,"description":"Applesauce with cherries, baby food, strained","additionalDescriptions":"Beech-Nut Stage 2 Apples and Cherries","dataType":"Survey (FNDDS)","foodCode":"67104070","publishedDate":"2019-04-01","allHighlightFields":"<b>Includes</b>: Beech-Nut Stage 2 Apples and <em>Cherries</em>","score":240.20045},{"fdcId":341548,"description":"Cherries, sweet, raw (Queen Anne, Bing)","additionalDescriptions":"cherries, raw, NFS","dataType":"Survey (FNDDS)","foodCode":"63115010","publishedDate":"2019-04-01","allHighlightFields":"<b>Includes</b>: <em>cherries</em>, raw, NFS","score":226.39372},{"fdcId":171686,"description":"Acerola, (west indian cherry), raw","scientificName":"Malpighia emarginata","dataType":"SR Legacy","ndbNumber":"9001","publishedDate":"2019-04-01","allHighlightFields":"","score":225.49413},{"fdcId":341799,"description":"Apple-cherry juice, baby food","additionalDescriptions":"Beech-Nut; Gerber","dataType":"Survey (FNDDS)","foodCode":"67203400","publishedDate":"2019-04-01","allHighlightFields":"","score":225.49413},{"fdcId":170950,"description":"Babyfood, fruit, applesauce and cherries, junior","dataType":"SR Legacy","ndbNumber":"3145","publishedDate":"2019-04-01","allHighlightFields":"","score":225.49413},{"fdcId":170949,"description":"Babyfood, fruit, applesauce and cherries, strained","dataType":"SR Legacy","ndbNumber":"3144","publishedDate":"2019-04-01","allHighlightFields":"","score":225.49413},{"fdcId":174147,"description":"Beverages, OCEAN SPRAY, Cran Cherry","dataType":"SR Legacy","ndbNumber":"14256","publishedDate":"2019-04-01","allHighlightFields":"","score":225.49413},{"fdcId":174933,"description":"Cake, cherry fudge with chocolate frosting","dataType":"SR Legacy","ndbNumber":"18095","publishedDate":"2019-04-01","allHighlightFields":"","score":225.49413},{"fdcId":167983,"description":"Candies, TWIZZLERS NIBS CHERRY BITS","dataType":"SR Legacy","ndbNumber":"19092","publishedDate":"2019-04-01","allHighlightFields":"","score":225.49413},{"fdcId":341836,"description":"Cherry cobbler, baby food, junior","additionalDescriptions":"Gerber Third Foods","dataType":"Survey (FNDDS)","foodCode":"67404550","publishedDate":"2019-04-01","allHighlightFields":"","score":225.49413},{"fdcId":341546,"description":"Cherry pie filling, low calorie","dataType":"Survey (FNDDS)","foodCode":"63113050","publishedDate":"2019-04-01","allHighlightFields":"","score":225.49413},{"fdcId":169062,"description":"Pie fillings, cherry, low calorie","dataType":"SR Legacy","ndbNumber":"43098","publishedDate":"2019-04-01","allHighlightFields":"","score":225.49413},{"fdcId":172781,"description":"Pie, cherry, prepared from recipe","dataType":"SR Legacy","ndbNumber":"18309","publishedDate":"2019-04-01","allHighlightFields":"","score":225.49413},{"fdcId":173780,"description":"SILK Black Cherry soy yogurt","dataType":"SR Legacy","ndbNumber":"16256","publishedDate":"2019-04-01","allHighlightFields":"","score":225.49413},{"fdcId":171373,"description":"Babyfood, dessert, cherry vanilla pudding, junior","dataType":"SR Legacy","ndbNumber":"3225","publishedDate":"2019-04-01","allHighlightFields":"","score":206.90486},{"fdcId":170979,"description":"Babyfood, dessert, cherry vanilla pudding, strained","dataType":"SR Legacy","ndbNumber":"3224","publishedDate":"2019-04-01","allHighlightFields":"","score":206.90486},{"fdcId":171901,"description":"Beverages, OCEAN SPRAY, Diet Cran Cherry","dataType":"SR Legacy","ndbNumber":"14235","publishedDate":"2019-04-01","allHighlightFields":"","score":206.90486},{"fdcId":339776,"description":"Cake or cupcake, black forest (chocolate-cherry)","dataType":"Survey (FNDDS)","foodCode":"53102800","publishedDate":"2019-04-01","allHighlightFields":"","score":206.90486},{"fdcId":167769,"description":"Cherries, sour, canned, water pack, drained","dataType":"SR Legacy","ndbNumber":"9362","publishedDate":"2019-04-01","allHighlightFields":"","score":206.90486},{"fdcId":341553,"description":"Cherries, sweet, cooked or canned, drained solids","dataType":"Survey (FNDDS)","foodCode":"63115150","publishedDate":"2019-04-01","allHighlightFields":"","score":206.90486},{"fdcId":341551,"description":"Cherries, sweet, cooked or canned, in heavy syrup","additionalDescriptions":"home canned","dataType":"Survey (FNDDS)","foodCode":"63115130","publishedDate":"2019-04-01","allHighlightFields":"","score":206.90486},{"fdcId":341552,"description":"Cherries, sweet, cooked or canned, in light syrup","dataType":"Survey (FNDDS)","foodCode":"63115140","publishedDate":"2019-04-01","allHighlightFields":"","score":206.90486},{"fdcId":341554,"description":"Cherries, sweet, cooked or canned, juice pack","dataType":"Survey (FNDDS)","foodCode":"63115170","publishedDate":"2019-04-01","allHighlightFields":"","score":206.90486},{"fdcId":341550,"description":"Cherries, sweet, cooked, unsweetened, water pack","dataType":"Survey (FNDDS)","foodCode":"63115120","publishedDate":"2019-04-01","allHighlightFields":"","score":206.90486}]}